{
  "name": "Armarouge",
  "nationalPokedexNumber": 936,
  "primaryType": "fire",
  "secondaryType": "psychic",
  "abilities": [
    "flashfire",
    "h:weakarmor"
  ],
  "baseStats": {
    "hp": 85,
    "attack": 60,
    "defence": 100,
    "special_attack": 125,
    "special_defence": 80,
    "speed": 75
  },
  "catchRate": 25,
  "maleRatio": 0.5,
  "baseExperienceYield": 0,
  "baseFriendship": 20,
  "evYield": {
    "hp": 0,
    "attack": 0,
    "defence": 0,
    "special_attack": 2,
    "special_defence": 0,
    "speed": 0
  },
  "experienceGroup": "slow",
  "eggCycles": 35,
  "eggGroups": [
    "human_like"
  ],
  "moves": [
    "1:astonish",
    "1:ember",
    "1:leer",
    "1:mysticalfire",
    "1:wideguard",
    "8:clearsmog",
    "12:firespin",
    "16:willowisp",
    "20:nightshade",
    "24:flamecharge",
    "28:incinerate",
    "32:lavaplume",
    "37:calmmind",
    "42:allyswitch",
    "48:flamethrower",
    "56:expandingforce",
    "62:armorcannon",
    "tm:acidspray",
    "tm:aurasphere",
    "tm:calmmind",
    "tm:confuseray",
    "tm:darkpulse",
    "tm:dragonpulse",
    "tm:endure",
    "tm:energyball",
    "tm:facade",
    "tm:fireblast",
    "tm:firespin",
    "tm:flamecharge",
    "tm:flamethrower",
    "tm:flareblitz",
    "tm:flashcannon",
    "tm:fling",
    "tm:focusblast",
    "tm:heatwave",
    "tm:helpinghand",
    "tm:irondefense",
    "tm:lightscreen",
    "tm:nightshade",
    "tm:overheat",
    "tm:protect",
    "tm:psybeam",
    "tm:psychic",
    "tm:psychicterrain",
    "tm:psyshock",
    "tm:reflect",
    "tm:rest",
    "tm:shadowball",
    "tm:sleeptalk",
    "tm:solarbeam",
    "tm:storedpower",
    "tm:substitute",
    "tm:sunnyday",
    "tm:takedown",
    "tm:taunt",
    "tm:terablast",
    "tm:trick",
    "tm:trickroom",
    "tm:willowisp"
  ],
  "labels": [
    "gen9"
  ],
  "aspects": [],
  "height": 15,
  "weight": 850,
  "preEvolution": "charcadet",
  "evolutions": [],
  "cannotDynamax": false,
  "pokedex": [
    "cobblemon.species.armarouge.desc"
  ]
}